<svg xmlns="http://www.w3.org/2000/svg" width="18.417" height="33.65" viewBox="0 0 18.417 33.65">
  <g id="Group_298" data-name="Group 298" transform="translate(-1749.271 -449)">
    <line id="Line_35" data-name="Line 35" y2="30" transform="translate(1758.5 450.5)" fill="none" stroke="#fff" stroke-linecap="round" stroke-width="3"/>
    <path id="Path_475" data-name="Path 475" d="M-14944.942-18999.984l7.088,6.871,7.087-6.871" transform="translate(16696.334 19474.264)" fill="none" stroke="#fff" stroke-linecap="round" stroke-linejoin="round" stroke-width="3"/>
  </g>
</svg>
